{
    "number_of_pages": 3,
    "measure_type": "pt",
    "page1": {
        "first_name": {
            "t": "302",
            "l": "490",
            "w": "74"
        },
        "last_name": {            
            "t": "302",
            "l": "383",
            "w": "106" 
        },
        "id": {            
            "t": "302",
            "l": "178",
            "w": "117" 
        },
        "birth_date": {            
            "t": "302",
            "l": "101",
            "w": "76" 
        },
        "gender_1": {            
            "t": "298",
            "l": "87", 
            "w": "12" 
        },
        "gender_2": {            
            "t": "298",
            "l": "65", 
            "w": "12" 
        },
        "family_status_1": {            
            "t": "335",
            "l": "551",
            "w": "12" 
        },
        "family_status_2": {            
            "t": "335",
            "l": "512", 
            "w": "12" 
        },
        "family_status_3": {            
            "t": "335",
            "l": "477", 
            "w": "12" 
        },
        "family_status_4": {            
            "t": "346",
            "l": "551", 
            "w": "12" 
        },
        "family_status_5": {            
            "t": "346",
            "l": "512", 
            "w": "12" 
        },
        "city": {            
            "t": "344",
            "l": "332",
            "w": "113" 
        },
        "street": {            
            "t": "344",
            "l": "177",
            "w": "118" 
        },
        "house": {            
            "t": "344",
            "l": "135", 
            "w": "42" 
        },
        "email": {            
            "t": "387",
            "l": "383",
            "w": "181" 
        },
        "cell": {            
            "t": "387",
            "l": "296",
            "w": "86" 
        },
        "employee_type_1": {            
            "t": "377",
            "l": "202", 
            "w": "12" 
        },
        "employer_name": {            
            "t": "670",
            "l": "434",
            "w": "130" 
        },
        "employer_address": {            
            "t": "670",
            "l": "304",
            "w": "130" 
        },
        "employer_id": {            
            "t": "670",
            "l": "42",
            "w": "130" 
        },
        "employer_phone": {            
            "t": "670",
            "l": "173",
            "w": "130" 
        }
    },
    "page2": {
        "insurance_type_1": {            
            "t": "128",
            "l": "544", 
            "w": "12" 
        },
        "insurance_type_2": {            
            "t": "154",
            "l": "544", 
            "w": "12" 
        },
        "insurance_type_3": {            
            "t": "180",
            "l": "544", 
            "w": "12" 
        },
        "insurance_type_4": {            
            "t": "206",
            "l": "544", 
            "w": "12" 
        },
        "insurance_type_5": {            
            "t": "230",
            "l": "544", 
            "w": "12" 
        },
        "insurance_type_6": {            
            "t": "254",
            "l": "544", 
            "w": "12" 
        },
        "insurance_type_7": {            
            "t": "278",
            "l": "544", 
            "w": "12" 
        },
        "insurance_type_1_age_67": {            
            "t": "129",
            "l": "60", 
            "w": "12" 
        },
        "insurance_type_1_age_64": {            
            "t": "129",
            "l": "90", 
            "w": "12" 
        },
        "insurance_type_1_age_62": {            
            "t": "129",
            "l": "122", 
            "w": "12" 
        },
        "insurance_type_1_age_60": {            
            "t": "129",
            "l": "155", 
            "w": "12" 
        },
        "insurance_type_2_age_67": {            
            "t": "155",
            "l": "60", 
            "w": "12" 
        },
        "insurance_type_2_age_64": {            
            "t": "155",
            "l": "90", 
            "w": "12" 
        },
        "insurance_type_2_age_62": {            
            "t": "155",
            "l": "122", 
            "w": "12" 
        },
        "insurance_type_2_age_60": {            
            "t": "155",
            "l": "155", 
            "w": "12" 
        },
        "insurance_type_3_age_67": {            
            "t": "182",
            "l": "60", 
            "w": "12" 
        },
        "insurance_type_3_age_64": {            
            "t": "182",
            "l": "90", 
            "w": "12" 
        },
        "insurance_type_3_age_62": {            
            "t": "182",
            "l": "122", 
            "w": "12" 
        },
        "insurance_type_3_age_60": {            
            "t": "182",
            "l": "155", 
            "w": "12" 
        },
        "insurance_type_4_age_67": {            
            "t": "207",
            "l": "60", 
            "w": "12" 
        },
        "insurance_type_4_age_64": {            
            "t": "207",
            "l": "90", 
            "w": "12" 
        },
        "insurance_type_4_age_62": {            
            "t": "207",
            "l": "122", 
            "w": "12" 
        },
        "insurance_type_4_age_60": {            
            "t": "207",
            "l": "155", 
            "w": "12" 
        },
        "insurance_type_5_age_67": {            
            "t": "231",
            "l": "60", 
            "w": "12" 
        },
        "insurance_type_5_age_64": {            
            "t": "231",
            "l": "90", 
            "w": "12" 
        },
        "insurance_type_5_age_62": {            
            "t": "231",
            "l": "122", 
            "w": "12" 
        },
        "insurance_type_5_age_60": {            
            "t": "231",
            "l": "155", 
            "w": "12" 
        },
        "insurance_type_6_age_67": {            
            "t": "255",
            "l": "60", 
            "w": "12" 
        },
        "insurance_type_6_age_64": {            
            "t": "255",
            "l": "90", 
            "w": "12" 
        },
        "insurance_type_6_age_62": {            
            "t": "255",
            "l": "122", 
            "w": "12" 
        },
        "insurance_type_6_age_60": {            
            "t": "255",
            "l": "155", 
            "w": "12" 
        },        
        "add_cover_1": {            
            "t": "356",
            "l": "554", 
            "w": "12" 
        },
        "add_cover_2": {            
            "t": "389",
            "l": "554", 
            "w": "12" 
        },        
        "waver_1": {            
            "t": "424",
            "l": "554", 
            "w": "12" 
        },
        "waver_2": {            
            "t": "435",
            "l": "554", 
            "w": "12" 
        },
        "waver_4": {            
            "t": "514",
            "l": "554", 
            "w": "12" 
        },
        "waver_5": {            
            "t": "526",
            "l": "554", 
            "w": "12" 
        },
        "investment_track_2173_tag": {            
            "t": "665",
            "l": "550", 
            "w": "12" 
        },
        "investment_track_2174_tag": {            
            "t": "688",
            "l": "550", 
            "w": "12" 
        },
        "investment_track_2175_tag": {            
            "t": "710",
            "l": "550", 
            "w": "12" 
        },
        "investment_track_9097_tag": {            
            "t": "733",
            "l": "550", 
            "w": "12" 
        },
        "investment_track_2173_pit": {            
            "t": "665",
            "l": "280", 
            "w": "12" 
        },
        "investment_track_2174_pit": {            
            "t": "688",
            "l": "280", 
            "w": "12" 
        },
        "investment_track_2175_pit": {            
            "t": "710",
            "l": "280", 
            "w": "12" 
        },
        "investment_track_9097_pit": {            
            "t": "733",
            "l": "280", 
            "w": "12" 
        }
    },
    "page3": {
        "hafkada_percent": {            
            "t": "80",
            "l": "137", 
            "w": "25" 
        },
        "tzvira_percent": {            
            "t": "80",
            "l": "392", 
            "w": "25" 
        },
        "today": {            
            "t": "645",
            "l": "420", 
            "w": "84" 
        },
        "sign_1": {            
            "t": "620",
            "l": "110",
            "w": "120",
            "h": "60"
        }
    }
}