{
    "number_of_pages": 6,
    "measure_type": "pt",
    "page1": {
        "first_name": {
            "t": "268",
            "l": "460",
            "w": "90" 
        },
        "last_name": {            
            "t": "268",
            "l": "369",
            "w": "91" 
        },
        "id": {            
            "t": "268",
            "l": "229",
            "w": "79" 
        },
        "birth_date": {            
            "t": "268",
            "l": "166",
            "w": "63" 
        },
        "gender_1": {            
            "t": "268",
            "l": "139", 
            "w": "12" 
        },
        "gender_2": {            
            "t": "268",
            "l": "139", 
            "w": "12" 
        },
        "family_status_1": {            
            "t": "263",
            "l": "108", 
            "w": "12" 
        },
        "family_status_2": {            
            "t": "263",
            "l": "86", 
            "w": "12" 
        },
        "family_status_3": {            
            "t": "263",
            "l": "65", 
            "w": "12" 
        },
        "family_status_4": {            
            "t": "273",
            "l": "104", 
            "w": "12" 
        },
        "family_status_5": {            
            "t": "273",
            "l": "74", 
            "w": "12" 
        },
        "city": {            
            "t": "306",
            "l": "434",
            "w": "116" 
        },
        "street": {            
            "t": "306",
            "l": "219",
            "w": "173" 
        },
        "house": {            
            "t": "306",
            "l": "177",
            "w": "40" 
        },
        "email": {            
            "t": "342",
            "l": "391",
            "w": "160" 
        },
        "cell": {            
            "t": "342",
            "l": "276",
            "w": "115" 
        },
        "employee_type_1": {            
            "t": "337",
            "l": "153", 
            "w": "12" 
        },
        "employer_name": {            
            "t": "620",
            "l": "427",
            "w": "124" 
        },
        "employer_address": {            
            "t": "620",
            "l": "303",
            "w": "124" 
        },
        "employer_id": {            
            "t": "620",
            "l": "54",
            "w": "124" 
        },
        "employer_phone": {            
            "t": "620",
            "l": "178",
            "w": "124" 
        }
    },    
    "page2": {
        "insurance_type_1": {            
            "t": "181",
            "l": "523", 
            "w": "12" 
        },
        "insurance_type_2": {            
            "t": "209",
            "l": "523", 
            "w": "12" 
        },
        "insurance_type_3": {            
            "t": "237",
            "l": "523", 
            "w": "12" 
        },
        "insurance_type_4": {            
            "t": "258",
            "l": "523", 
            "w": "12" 
        },
        "insurance_type_5": {            
            "t": "274",
            "l": "523", 
            "w": "12" 
        },
        "insurance_type_6": {            
            "t": "288",
            "l": "523", 
            "w": "12" 
        },
        "insurance_type_7": {            
            "t": "302",
            "l": "523", 
            "w": "12" 
        },
        "insurance_type_8": {            
            "t": "324",
            "l": "523", 
            "w": "12" 
        },
        "insurance_type_1_age_67": {            
            "t": "261",
            "l": "198", 
            "w": "12" 
        },
        "insurance_type_1_age_64": {            
            "t": "247",
            "l": "198", 
            "w": "12" 
        },
        "insurance_type_1_age_62": {            
            "t": "232",
            "l": "198", 
            "w": "12" 
        },
        "insurance_type_1_age_60": {            
            "t": "218",
            "l": "198", 
            "w": "12" 
        },
        "insurance_type_2_age_67": {            
            "t": "261",
            "l": "198", 
            "w": "12" 
        },
        "insurance_type_2_age_64": {            
            "t": "247",
            "l": "198", 
            "w": "12" 
        },
        "insurance_type_2_age_62": {            
            "t": "232",
            "l": "198", 
            "w": "12" 
        },
        "insurance_type_2_age_60": {            
            "t": "218",
            "l": "198", 
            "w": "12" 
        },
        "insurance_type_3_age_67": {            
            "t": "261",
            "l": "198", 
            "w": "12" 
        },
        "insurance_type_3_age_64": {            
            "t": "247",
            "l": "198", 
            "w": "12" 
        },
        "insurance_type_3_age_62": {            
            "t": "232",
            "l": "198", 
            "w": "12" 
        },
        "insurance_type_3_age_60": {            
            "t": "218",
            "l": "198", 
            "w": "12" 
        },
        "insurance_type_4_age_67": {            
            "t": "261",
            "l": "198", 
            "w": "12" 
        },
        "insurance_type_4_age_64": {            
            "t": "247",
            "l": "198", 
            "w": "12" 
        },
        "insurance_type_4_age_62": {            
            "t": "232",
            "l": "198", 
            "w": "12" 
        },
        "insurance_type_4_age_60": {            
            "t": "218",
            "l": "198", 
            "w": "12" 
        },
        "insurance_type_5_age_67": {            
            "t": "261",
            "l": "198", 
            "w": "12" 
        },
        "insurance_type_5_age_64": {            
            "t": "247",
            "l": "198", 
            "w": "12" 
        },
        "insurance_type_5_age_62": {            
            "t": "232",
            "l": "198", 
            "w": "12" 
        },
        "insurance_type_5_age_60": {            
            "t": "218",
            "l": "198", 
            "w": "12" 
        },
        "insurance_type_6_age_67": {            
            "t": "261",
            "l": "198", 
            "w": "12" 
        },
        "insurance_type_6_age_64": {            
            "t": "247",
            "l": "198", 
            "w": "12" 
        },
        "insurance_type_6_age_62": {            
            "t": "232",
            "l": "198", 
            "w": "12" 
        },
        "insurance_type_6_age_60": {            
            "t": "218",
            "l": "198", 
            "w": "12" 
        },
        "insurance_type_7_age_67": {            
            "t": "261",
            "l": "198", 
            "w": "12" 
        },
        "insurance_type_7_age_64": {            
            "t": "247",
            "l": "198", 
            "w": "12" 
        },
        "insurance_type_7_age_62": {            
            "t": "232",
            "l": "198", 
            "w": "12" 
        },
        "insurance_type_7_age_60": {            
            "t": "218",
            "l": "198", 
            "w": "12" 
        },
        "insurance_type_8_age_60": {            
            "t": "325",
            "l": "198", 
            "w": "12" 
        }
    },    
    "page3": {        
        "add_cover_1": {            
            "t": "192",
            "l": "533", 
            "w": "12" 
        },
        "add_cover_2": {            
            "t": "158",
            "l": "533", 
            "w": "12" 
        },        
        "waver_1": {            
            "t": "431",
            "l": "533", 
            "w": "12" 
        },
        "waver_2": {            
            "t": "445",
            "l": "533", 
            "w": "12" 
        },
        "waver_3": {            
            "t": "542",
            "l": "533", 
            "w": "12" 
        },
        "waver_4": {            
            "t": "623",
            "l": "533", 
            "w": "12" 
        },
        "waver_5": {            
            "t": "642",
            "l": "533", 
            "w": "12" 
        }
    },    
    "page4": {
        "investment_track_1328_tag": {            
            "t": "195",
            "l": "526", 
            "w": "12" 
        },
        "investment_track_9757_tag": {            
            "t": "210",
            "l": "526", 
            "w": "12" 
        },
        "investment_track_9758_tag": {            
            "t": "224",
            "l": "526", 
            "w": "12" 
        },
        "investment_track_9759_tag": {            
            "t": "239",
            "l": "526", 
            "w": "12" 
        },
        "investment_track_9760_tag": {            
            "t": "254",
            "l": "526", 
            "w": "12" 
        },
        "investment_track_12419_tag": {            
            "t": "269",
            "l": "526", 
            "w": "12" 
        },
        "investment_track_1328_pit": {            
            "t": "326",
            "l": "526", 
            "w": "12" 
        },
        "investment_track_9757_pit": {            
            "t": "341",
            "l": "526", 
            "w": "12" 
        },
        "investment_track_9758_pit": {            
            "t": "355",
            "l": "526", 
            "w": "12" 
        },
        "investment_track_9759_pit": {            
            "t": "370",
            "l": "526", 
            "w": "12" 
        },
        "investment_track_9760_pit": {            
            "t": "384",
            "l": "526", 
            "w": "12" 
        },
        "investment_track_12419_pit": {            
            "t": "399",
            "l": "526", 
            "w": "12" 
        },
        "hafkada_percent": {            
            "t": "503",
            "l": "392", 
            "w": "24" 
        },
        "tzvira_percent": {            
            "t": "518",
            "l": "386", 
            "w": "24" 
        }
    },    
    "page5": {
    },    
    "page6": {
        "first_name": {
            "t": "482",
            "l": "445",
            "w": "106" 
        },
        "last_name": {            
            "t": "482",
            "l": "341",
            "w": "104" 
        },
        "id": {            
            "t": "482",
            "l": "225",
            "w": "115" 
        },
        "today": {            
            "t": "482",
            "l": "140", 
            "w": "84" 
        },
        "sign_1": {            
            "t": "460",
            "l": "60",
            "w": "120",
            "h": "60"
        }
   }
}